﻿### EK EDIT: Remove events too specific to vanilla

# Called every Jan 1st
# Root does not exist
yearly_global_pulse = {
	on_actions = {
		ek_yearly_global_pulse
		inspiration_maintenance_global_pulse
	}

	effect = {
		### EK EDIT: Removed a lot of stuff (Visigothic culture split, Mongol Invasion, ...)
	}
}

# Called from code once a year for "playable" (count+) characters.
# Root is the character
yearly_playable_pulse = {
	effect = {
		ai_budget_manipulation_effect = yes
		if = {
			limit = {
				has_government = mercenary_government
				culture = {
					has_cultural_parameter = mercenary_courtiers_gain_extra_skills
				}
			}
			knight_increase_prowess_chance_effect = yes
			every_courtier = {
				limit = {
					is_knight = yes
				}
				knight_increase_prowess_chance_effect = yes
			}
		}
		# Assign or level up court type trait for courtiers in a royal court
		if = {
			limit = {
				has_royal_court = yes
			}
			assign_court_type_traits_to_courtiers_effect = yes
		}
	}
	events = {
		adultery.0001 #Suspected spouse/soulmate of cheating (increased chance when there is a lover, but can also trigger otherwise)
		hold_court.3050 #Warning the ruler that it's been some time since they Held Court
		court_maintenance.0012 # Dynasty banner improves with renown
		court_maintenance.0013 # Remove duplicate dynasty banners
	}
	on_actions = {
		ai_character_pulse
		delay = { days = 75 }

		pagan_conversion_pulse
	}
}

# Called from code once every three years for "playable" (count+) characters.
# Root is the character
three_year_playable_pulse = {
	random_events = {
		800 = 0
		### EK EDIT: Spread of Sicilian events, disabled
	}
}

# Called from code once every five years for "playable" (count+) characters.
# Root is the character
five_year_playable_pulse = {
	effect = {
		root = {
			if = {
				limit = {
					has_royal_court = yes
				}
				every_courtier = {
					limit = {
						is_available_ai = yes
						age > 6
						NOT = {
							knows_court_language_of = host
						}
					}
					random = {
						chance = {
							value = -4
							add = learning
							if = {
								limit = {
									is_adult = no
								}
								add = 4
							}
							if = {
								limit = {
									host = {
										employs_court_position = court_tutor_court_position
									}
								}
								add = 2
							}
							if = {
								limit = {
									host = {
										has_court_type = court_diplomatic
									}
								}
								add = 2
							}
							if = {
								limit = {
									host = {
										has_court_type = court_scholarly
									}
								}
								add = 4
							}
						}
						learn_court_language_of = host
					}
				}
				if = {
					limit = {
						employs_court_position = court_poet_court_position
					}
					every_court_position_holder = {
						type = court_poet_court_position
						limit = {
							is_physically_able_adult = yes
							ep1_is_valid_character_for_inspiration_trigger = yes
						}
						random = {
							chance = {
								value = 5
								add = {
									value = this.aptitude:court_poet_court_position
									multiply = 5
									if = {
										limit = {
											has_trait = lazy
										}
										multiply = 0.5
									}
								}
							}
							grant_inspiration_to_character_effect = { CHARACTER = this }
							save_scope_as = inspired_poet
							root = {
								send_interface_toast = {
									left_icon = scope:inspired_poet
									title = poet_inspired_message
									custom_tooltip = poet_inspired_effect
								}
							}
						}
					}
				}
				if = {
					limit = {
						employs_court_position = court_artificer_court_position
					}
					every_court_position_holder = {
						type = court_artificer_court_position
						limit = {
							is_physically_able_adult = yes
							ep1_is_valid_character_for_inspiration_trigger = yes
						}
						random = {
							chance = {
								value = 5
								add = {
									value = this.aptitude:court_artificer_court_position
									multiply = 5
									if = {
										limit = {
											has_trait = lazy
										}
										multiply = 0.5
									}
								}
							}
							grant_inspiration_to_character_effect = { CHARACTER = this }
							save_scope_as = artificer
							root = {
								send_interface_toast = {
									left_icon = scope:artificer
									title = poet_inspired_message
									custom_tooltip = court_artificer_inspired_effect
								}
							}
						}
					}
				}
			}
		}
	}
	events = {
		courtier_guest_management.3001 	# Courtiers and guests getting relationships & secrets
		game_rule.1 					# De Jure Requirement Game Rule
		game_rule.4 					# Empire Obscurity Game Rule
	}
	on_actions = {
		delay = { days = { 45 75 } }
		culture_hybridization_emergence_events # DEMD EDIT: hybridization is back on the menu, boys!
		delay = { days = { 45 75 } }
		culture_divergence_emergence_events
	}
}

# Called from code once a quarter for "playable" (count+) characters.
# Root is the character
# scope:quarter is which quarter it's for, from 1 to 4. Note that scope:quarter = 1 isn't necessarily in Q1 by calendar time
quarterly_playable_pulse = {
	on_actions = {
		realm_maintenance_quarterly_pulse
		
		#Event pools
		stewardship_lifestyle_progress_pulse
		intrigue_lifestyle_progress_pulse
		diplomacy_lifestyle_progress_pulse
		martial_lifestyle_progress_pulse
		learning_lifestyle_progress_pulse
		
		#Relation pulses are spread out across the four quarterly pulses a year
		lover_quarterly_pulse
		friendship_quarterly_pulse
		rival_quarterly_pulse
		mentor_student_quarterly_pulse

		# EP1 maintenance pulses
		inspiration_maintenance_quarterly_pulse
		
		### EK EDIT: Plugged our own on_action
		ek_quarterly_playable_pulse
	}
}

# Called from code once a year for all "playable" characters, at a random point that year (individually for each character). Different time from the random_yearly_everyone_pulse (coincides by random 1 time out of 365)
# Root is the character
random_yearly_playable_pulse = {
	trigger = {
		basic_is_valid_for_yearly_events_trigger = yes
	}
	random_on_action = {
		chance_of_no_event = {
			value = 0
			if = {
				limit = {
					is_ai = yes
					highest_held_title_tier < tier_duchy
				}
				add = 75 # AI counts aren't particularly important
			}
		}
		5 = on_yearly_events
		4 = fp1_yearly_events
		3 = fp2_yearly_events
		1 = bp1_yearly_events
	}
	on_actions = {
		delay = { days = { 45 75 } }
		on_yearly_common_events	
		delay = { days = { 50 80 } }
		on_yearly_invisible_events
		delay = { days = { 85 165 } }
		bishop_ongoing
		delay = { days = { 165 185 } }
		jester_ongoing
		delay = { days = { 51 360 } }
		childhood_ongoing
	}
}

# Called from code once a year for all characters, at a random point that year (individually for each character)
# Root is the character
random_yearly_everyone_pulse = {
	on_actions = {
		yearly_health_pulse
		stress_pulse
		prison_maintenance_pulse
		
		ek_random_yearly_everyone_pulse
		ek_random_yearly_ai_pulse
	}
	random_on_action = {
		chance_of_no_event = {
			value = 95
		}
		1 = assign_trait_events
	}
	events = {
		holy_order.0206 #To increment the years passed since loan
		marriage_interaction.0007 #One of the betrothed became part of clergy that doesn't allow marriage
	}
	random_events = {
		500 = 0
		100 = holy_order.0202 #Holy order demands payment
	}
}

# Called from code once every five years for all characters.
# Root is the character
five_year_everyone_pulse = {
	effect = {
		root = {
			if = { # Non-lowborn Barons should marry and produce a family
				limit = {
					exists = primary_title
					primary_title.tier = tier_barony
					is_adult = yes
					is_married = no
					is_lowborn = no
					can_marry_trigger = yes
				}
				
				if = {
					limit = {
						exists = root.location
						any_pool_character = {
							province = location
							can_have_children_with = { CHARACTER = root }
							is_physically_able_adult = yes
							age <= 40
							is_married = no
							can_marry_trigger = yes
							is_concubine = no
							is_claimant = no
						}
					}
					random_pool_character = {
						province = root.location
						limit = {
							can_have_children_with = { CHARACTER = root }
							is_physically_able_adult = yes
							age <= 40
							is_married = no
							can_marry_trigger = yes
							is_concubine = no
							is_claimant = no
						}
						save_temporary_scope_as = spouse
					}
				}
				else = {
					create_character = {
						location = root.location
						template = pool_repopulate_spouse
						save_temporary_scope_as = spouse
					}
				}

				if = {
					limit = {
						is_female = yes
						scope:spouse = {
							is_lowborn = yes
						}
					}
					marry_matrilineal = scope:spouse
				}
				else = {
					marry = scope:spouse
				}
			}
			
			if = { # Long term gold is pointless for Barons - add it to short term instead
				limit = {
					is_ai = yes
					highest_held_title_tier = tier_barony
					gold > 0
					long_term_gold > 0
				}
				move_budget_gold = { gold = long_term_gold from = budget_long_term to = budget_short_term }
			}
		}
	}
	on_actions = {
		disease_outbreak_pulse # moved from health_on_actions.txt
	}
	events = {
		murder_scheme_maintenance.1 # Murder schemes for the AI, including unlanded characters
	}
}

# Called from code once every 3 years for pool characters
# root = the character
three_year_pool_pulse = {
	trigger = {
		is_pool_character = yes # Can cease to be in the pool between it queuing and executing
	}
	events = {
		courtier_guest_management.2001 #"Develops" the character and gives those without location a location
	}
}

#Only triggered if you actually have prisoners
prison_maintenance_pulse = {
	trigger = {
		any_prisoner = { count >= 1 }
	}
	on_actions = {
		#Set up quarterly pulses
		delay = { days = 45 }
		quarterly_prison_maintenance_pulse
		delay = { days = 135 }
		quarterly_prison_maintenance_pulse
		delay = { days = 225 }
		quarterly_prison_maintenance_pulse
		delay = { days = 315 }
		quarterly_prison_maintenance_pulse
	}
}


#Pulse for various AI stuff
ai_character_pulse = {
	trigger = {
		is_ai = yes
	}
	random_events = {
		chance_to_happen = 25
		500 = 0
		100 = learn_commander_trait.0001
		100 = holy_order.0100 #Give pilgrim trait to holy order members
	}
}
# EK EDIT: no hybridization allowed due to incompatibility with species system
culture_hybridization_emergence_events = {
	random_events = {
		95 = 0
		5 = culture_emergence_events.0001 # Create a hybrid culture with your capital culture
	}
}

culture_divergence_emergence_events = {
	random_events = {
		199 = 0
		1 = culture_emergence_events.0002 # Create a divergent culture
	}
}

on_yearly_common_events = {
	random_events = {
		chance_to_happen = 50
		1000 = 0
		300 = lover.0003 #Too many lovers - break up with one?
		90 = language_events.0001 #Too many known languages - forget one?
		10 = language_events.0010 #Owl version of Too many known languages - forget one?
		200 = parent.0001 #parent_meddling_value_effect decreases over time
		200 = childhood.2010 # Convince ward they owe you
		50 = relation_upgrade.3000 # Vengeful character gains a rival, also for Cultural Tradition more rivals
		#Adultery events
		50 = adultery.2001 #Is the father suspicious of child or not?
		10 = adultery.3001 #Mother tells child the secret about them
		10 = culture_tradition_events.2000 # Vassal Gain Loyal Trait
		10 = culture_tradition_events.2001 # Vassal Gain Disloyal Trait
		100 = culture_tradition_events.2100 # Storytelling cultural tradition
	}
}

on_yearly_invisible_events = {
	random_events = {
		chance_to_happen = 5
		150 = 0
		100 = secrets.1004 #Courtier learns another courtier's minor secret
		50 = secrets.1005 #A Courtier learns another courtier's major secret
	}
}


on_yearly_events = {
	random_events = {
		chance_to_happen = 25
		200 = 0

		50 = yearly.0001 	#Skill Tutoring
		100 = yearly.0002	#Indiscreet Councillor
		10 = yearly.0003	#Forbidden Love
		25 = yearly.0011	#Comet Sighted!

		75 = yearly.1001 	#Someone else's spouse makes a move at you
		50 = yearly.1010 	#Person you care about is abducted by rival
		15 = yearly.1020 	#High-up ruler wants you to deal with pesky enemy
		100 = yearly.1030 	#Someone you have hooked offers up other character's secret
		50 = yearly.1040 	#Courtier is hiding a letter - surprise or secret?
		100 = yearly.1050	#Heir fancies themselves a duelist
		100 = yearly.1060	#The oldest joke in the book
		100 = yearly.1070  	#Someone is your potential soulmate
		100 = yearly.1080	#You are being paranoid
		100 = yearly.1090	#Foreign guests

		80 = yearly.3001 	#Dedication to Loyalty
		100 = yearly.3011 	#An Impression Twice Made
		100 = yearly.3021 	#On Their Deathbed
		100 = yearly.3031 	#Getting Ahead
		50 = yearly.3040	#A Good FaithPracticioner
		100 = yearly.3041	#Chafing Under Secular Laws
		100 = yearly.3051	#By Right
		50 = yearly.3061	#Cagots
		5 = yearly.3071		#A terrible nightmare
		5 = party_baron.0001 # Start the Party Baron story cycle

		100 = yearly.4001 	#A powerful vassal has angered neighboring ruler
		100 = yearly.4011 	#Heir is spending a lot of time with one of your powerful vassals
		10 = yearly.4021	#Mamaaaa, just killed a child
		10 = yearly.4031	#Who keeps leaving dead bodies all around the castle?!
		20 = yearly.4051	#Get a gift from a neighboring ruler (triggered here so you can't know for sure if someone has a scheme towards you)

		100 = yearly.5001 	#Catching Lover and Spouse fighting.
		100 = yearly.5010	#Vassal shows compassion to stressed/sick ruler, incurs in the jealousy of another vassal
		100 = yearly.5020	#Councilor offers to teach heir
		100 = yearly.5030	#Powerful Vassal offers to reveal secret of other Powerful Vassal to liege.
		100 = yearly.5040	#Two unimportant courtiers caught talking about powerful vassal.
		100 = yearly.5050	#Spouse feels slighted by courtier.

		10 = stress_trait_coping_decisions.2002 #Your stuff got stolen by a person in  a brothel!

		100 = yearly.7001	#Faction attempts a coup or kidnapping

		10 = yearly.7010	#Opportunity to participate in a football game
		
		#'Nice' events (positive effects)
		100 = yearly.8000 	# Vassal offers liege a gift
		100 = yearly.8100 	# The peasantry of a Domain province gives you a gift
		100 = yearly.8200 	# Your realm priest offers you part of a large donation
		100 = yearly.8300 	# A group of vassals collectively wish to contribute to your war effort
		20 = yearly.8400	# Discover a guest's Deviant secret (Strong Hook), and get the potential to send them to a rival's court
		300 = yearly.8500	# Your Head of Faith sends you a gift if you're fighting heathens

		#Ai value events
		100 = trait_specific_ongoing.2010 	# Positive zeal: which god/saint is talking to me?
		100 = witch.4001					# Negative zeal: annoying clergy

		# Stress Events
		100 = stress_trait_ongoing.0501 # A relaxing evening with some hashish cakes.
		100 = stress_trait_ongoing.0506 # Self-medicating pain away with hashish.
		100 = stress_trait_ongoing.0511 # An elderly person laments the follies of hashish-consuming youth.
		100 = stress_trait_ongoing.0516 # You zone out whilst eating hashish in an important meeting.
		100 = stress_trait_ongoing.1501 # Rake fantasizes about courtier.
		100 = stress_trait_ongoing.4501 # Comfort Eater runs out of favorite food.
		100 = stress_trait_ongoing.4502 # Cannibal needs to satisfy their craving!
		100 = stress_trait_ongoing.5001 # Inappetetic has a important character prepare a feast for them.
		
		#Elephant events for India
		300 = yearly.9020 # A Mighty Elephant

		# Tribal events
		100 = tribal.1101 #Holmgang with a rival
		100 = tribal.1201 #Horse Racing
		100 = tribal.1301 #Crocodile Encounter
		100 = tribal.1303 #Irrigate Oasis

		#Clan events
		150 = clan.1001 #Powerful vassal requests marriage
		150 = clan.1011 #A vassal asks for a perk
		150 = clan.1101 #Vassal Resents Nepotism
		100 = clan.1201 #Culture seeks Representation

		### EK EDIT: These events are too specific and will have to be checked one day to see if we can reuse them
		# #Muslim-specific events (mostly about Islamic centers of learning)
		# 200 = yearly.4061 #A wise man visits your court
		# 200 = yearly.4071 #You're very educated!
		# 200 = yearly.4081 #Sponsor the translation of a book from Greek
		# 200 = yearly.4091 #Your ward and you visit scholars

		# # Saharan regional flavour events.
		# ## Marginally bumped some weightings for regional effect.
		# 500 = yearly_saharan.0001 # An organised faith's merchants try to convert a pagan county in your domain.
		# 500 = yearly_saharan.0021 # Desert nomads wish to move to one of your non-nomadic Saharan counties.
		# 300 = yearly_saharan.0031 # Local slave raids intensify (aggressor).
		# 300 = yearly_saharan.0032 # Local slave raids intensify (defender).

		# # Persion regional flavor events
		# 400 = yearly_persian.1001 # Nowruz, or Persian New Year
		# 400 = yearly_persian.1101 # Shu'ubiyya, or Persian Nationalism (From the foreign side)

		# # Varangian Guard
		# 400 = varangian.0001 # A Courtier wants to join the Varangian Guard

		#Pet story cycles
		20 = pet_animal.5001 # Rival has cat...
		20 = pet_animal.5002 # Rival has dog...

		#Holy Order
		100 = holy_order.2001 # Child wishes to join Holy Order
		100 = holy_order.2002 # Sibling wants to join a Holy Order
		200 = holy_order.2003 # Holy Order suggests you send them a child
		1000 = holy_order.2004 # Child returns to pick up the mantle
		100 = holy_order.2005 # A - Possibly Undesirable - Child Returns Home
		1000 = fp1_jomsvikings.0011	# FP1 - Jomsvikings terrorise their neighbours
		
		#Relationship Upgrade Events	
		75 = relation_upgrade.0001
		75 = relation_upgrade.1001
		75 = relation_upgrade.2001
		75 = relation_upgrade.2101
		
		#lunatic
		100 = trait_specific_ongoing.1001 # You're developing 'glass delusion'
		100 = trait_specific_ongoing.1003 # Collecting animals
		100 = trait_specific_ongoing.1005 # Talk to dead people
		100 = trait_specific_ongoing.1007 # A lunatic dreams of glass (enables the decision_lunatic_building decision)
		50 = trait_specific_ongoing.1008 # You kill a friend :(
		100 = trait_specific_ongoing.1009 # Grandiose delusions
		100 = trait_specific_ongoing.1010 # You love your warhorse
		100 = trait_specific_ongoing.1011 # Force your court to be naked
		20 = trait_specific_ongoing.1012 # Ravings
		100 = trait_specific_ongoing.1015 # Paranoid delusions
		#possessed
		100 = trait_specific_ongoing.2001 # Witchy or divine visions?
		100 = trait_specific_ongoing.2009 # Which god/saint is talking to me?
		100 = trait_specific_ongoing.2015 # Court physician wants to treat you
		100 = trait_specific_ongoing.2025 # Seizure surrounded by people
		#depressed
		100 = trait_specific_ongoing.3001 # You bond with a fellow depressed character
		100 = trait_specific_ongoing.3002 # Your court physician tries to treat you
		100 = trait_specific_ongoing.3009 # You're exhausted
		100 = trait_specific_ongoing.3015 # Someone calls you lazy
		#cannibal
		100 = trait_specific_ongoing.5001 # Private conversation with a vassal or courtier
		100 = trait_specific_ongoing.5003 # Eat someone from the staff
		100 = trait_specific_ongoing.5004 # Eat an old lady
		100 = trait_specific_ongoing.5005 # Eat a courtier
		#deviant
		100 = trait_specific_ongoing.6001 # Convert a lover to the freaky side of things
		100 = trait_specific_ongoing.6002 # You walk in on your deviant liege
		#drunkard
		#100 = trait_specific_ongoing.7001
		#incestuous
		#100 = trait_specific_ongoing.8001
		#Witch
		100 = witch.4000 #Annoying clergy
		100 = witch.4010 #Personal witch ritual
		100 = witch.4020 #Pray with potential friends
		25 = witch.4030  #Rare book
		
		# Friend Events
		10 = friendship.0003 #Friend might become Lover
		100 = friendship.1001 #Send Friend a gift
		500 = friendship.1006 # Receive wartime support from Friend
		100 = friendship.1008 #Send a good courtier to your Friend
		100 = friendship.2001 #Confess a secret to your Friend
		30 = friendship.2004 #Confess a Major secret to your Friend
		100 = friendship.2007 #Try to improve a character's impression of your Friend
		25 = friendship.3001 #Get along with your spouse's friend
		25 = friendship.3003 #You hate your spouse's friend
		100 = friendship.3006 #A Friend gets you a favor hook on one of your Councillors
		300 = friendship.3007 # Hanging out with your Friend reduces Stress
		
		# Rival Events	
		200 = rivalry.2001 #Hinder the progress of rival's Befriend scheme
		100 = rivalry.1001 #Rival adds stress
		100 = rivalry.1010 #Spiteful Acts ( my rival's aggravating behavior has gone on long enough)
		100 = rivalry.1030 #Meddling in Marriage
		100 = rivalry.3001 #Rival insults you
		100 = rivalry.3002 #You like the Rival of a Friend less
		100 = rivalry.3004 #Decrease opinion of rival because of opposing personality trait
		
		# Vassal Events
		100 = vassal.1001 # Religious liege wants you to build temple
		100 = vassal.1101 # Religious vassal wants you to build temple
		100 = vassal.2001 # Vassal wants liege to educate their child
		100 = vassal.2101 # No feast in a while, vassal requests it
		200 = vassal.2201 # You lend money from a vassal
		400 = vassal.2205 # Vassal reminds you of the money you owe them
		100 = vassal.2301 # Highly skilled vassal progresses development in province
		100 = vassal.2401 # Vassal wants gold, offers territory/better Vassal Contract
		100 = vassal.2451 # Vassal wants better contract, offers territory/gold
		100 = vassal.2501 # Peaceful vassal complains about ongoing war
		100 = vassal.2601 # Warmongering vassal complains about peace
		100 = vassal.2701 # Ask vassal to teach you CT
		100 = vassal.2801 # Liege complains abut no province improvement
		100 = vassal.2901 # Vassal requesting land they have claim on
		100 = vassal.3001 # You have no heir, ask a vassal for help
		100 = vassal.5010 # Zealous vassal wants liege to fight religious enemies
		100 = vassal.5050 # Vassal wants liege to fight war over his claim
		
		# Spouse Events
		75 = spouse.0001 #Increase opinion of spouse because of common personality
		75 = spouse.0003 #Increase opinion of spouse because of common lifestyle or education
		75 = spouse.0005 #Decrease opinion of spouse because of opposite personality
		75 = spouse.0007 #Increase opinion of spouse because of common friend
		75 = spouse.1001 #Increase opinion of an ambivalent spouse
		75 = spouse.1003 #Decrease opinion of an ambivalent spouse
		75 = spouse.2001 #Lose stress thanks to a loving spouse
		75 = spouse.2002 #An opportunity to speak highly of your spouse!
		75 = spouse.2012 #Share a secret with spouse
		75 = spouse.2014 #You suspect a plot against your spouse
		75 = spouse.3001 #Spouse adds stress
		75 = spouse.3002 #Spread rumours about your spouse
		75 = spouse.3012 #Pretend there is a plot against your spouse
		50 = intrigue_scheme_ongoing.5021 #Spouse is plotting against someone!
		
		# Parent Events	
		75 = parent.1001 #Parent aids with Martial
		75 = parent.1002 #Parent aids with Diplomacy
		75 = parent.1003 #Parent aids with Intrigue
		75 = parent.1004 #Parent aids with Stewardship
		75 = parent.1005 #Parent aids with Learning
		50 = parent.1006 #Parent helps administrate one of your counties
		75 = parent.1007 #Parent helps with courtier opinion
		50 = parent.1009 #Parent gives you a new courtier
		75 = parent.1010 #Parent gives stress_loss
		50 = intrigue_scheme_ongoing.5021 #Parent is plotting against someone!
		
		# Secret Events	
		100 = secrets.1001 #Randomly learn a courtier's secrets
		100 = secrets.1002 #Courtier randomly learns one of court owner's minor secrets
		50 = secrets.1003 #Courtier randomly learns one of court owner's major secrets
		300 = secrets.1011 #A Friend discovers your secret lover
		100 = secrets.1100 #Discover a sibling's Bastard secret
		200 = secrets.2001 #A Just or Compassionate relation does not like your murder secret
		150 = secrets.3001 #A close relation disrupts a Scheme against you
		#Blackmail events
		100 = blackmail.1001 #Blackmailing a vassal causes Dread with the others
		100 = blackmail.1002 #Gain Stress from being under Blackmail
		
		# Lover Events
		50 = lover.1001 #A Lover shares someone's secret with you
		50 = lover.1002 #A Lover aids a diplomatic scheme
		100 = lover.3203 #Go to your spouse or your lover
		100 = lover.3206 #You're forced to wage war against your lover
		50 = lover.1003 #Lover helps you lose stress
		50 = lover.1004 #Travel somewhere with your lover
		200 = lover.1006 #Liege lover granting council position
		200 = lover.1007 #Liege lover granting better contract
		200 = lover.1008 #Liege lover granting county modifier
		100 = lover.2001 #Having a secret lover causes stress
		100 = lover.2002 #High stress damages your relationship to your Lover
		100 = lover.2004 #Question exclusive partner about spouse
		20 = lover.3002 #Start Love Letter chain
		50 = lover.0300 #Ask lover to be exclusive
		50 = lover.3201 #Leave lover_object_of_importance for lover to find
		100 = lover.3204 #Your lover is far far away
		100 = lover.3207 #Write letter to beloved!
		100 = lover.3211 # Send lover a painting
		100 = lover.3215 #Send a troubadour to lover's court
		100 = lover.3219 # Send a personal object to lover
		100 = lover.7001 #Chance that a good friend becomes a potential lover
		100 = lover.7003 #Chance that a rival becomes a potential lover
		50 = lover.7005 #Chance that a close family member becomes a potential lover
		
		#FP1 Events (These ones do not explicitly need you to be norse, but should be more likely if you are - present in both this and fp1_yearly_events)
		200 = fp1_yearly.2100 # Two lovers duel for your love
		200 = fp1_yearly.0521 # Blood on the Snow - your child wishes to snowball fight.
		200 = fp1_yearly.0531 # [Dynasty] on Ice - your child wants to learn how to ice skate.
		200 = fp1_yearly.0591 # Raised Voices at the Thing - two of your counties are fighting at a regional thing.
		200 = fp1_yearly.0601 # The Hardest Part of Ruling - you're incredibly bored in a protracted thing session.
		# EK EDIT: removed whaling from yearlies
		200 = fp1_yearly.0661 # A Novel Challenge - a knight challenges you to skiing.
		200 = fp1_yearly.0671 # A Slippery Slope - your child wants to go sledding.
		200 = fp1_yearly.0071 # In the Deep Places of the World - locals in your Scandi capital report a troll.
		15 = fp1_yearly.2000 # A Child wants to run away to marry their beloved
		
		#EP1 Flavor Events
		50 = ep1_flavor.0001 # A neighbouring court has a secret child
		100 = ep1_flavor.0011 # Diplomats from nearby realms have trashed your favourite hall.
		100 = ep1_flavor.0021 # You compete with another realm that shares your court language for grandeur.
		100 = ep1_flavor.0031 # Several fresh young scholars are newly arrived at court & need guidance.
		100 = ep1_flavor.1000 # A visiting eunuch offers their services
		100 = ep1_flavor.1200 # A learned eunuch wishes to sell various tips & tricks
		25 =  ep1_flavor.2000 # Invest in sports for your men-at-arms
		25 = ep1_flavor.2010 # Too many plots at court, which one is real?!
		25 = ep1_flavor.2020 # Two men-at-arms don't like each other
		25 = ep1_flavor.2030 # Rule on a dispute between two provincial characters
		100 = ep1_flavor.2041 # A trader offers an exotic weapon from a faraway land
		25 = ep1_flavor.2060 # Local merchant outed by local policeman
		25 = ep1_flavor.2070 # Interfere in a debate with a gifted visting scholar
		100 = language_events.0002 # Vassal who speak the language lauds your efforts
		
		#Flavor Events
		200 = yearly.9100 # Trouble in the Garden
		200 = yearly.9110 # The Flower Thief
		200 = yearly.9120 # The Seed Merchant

		#Artifact Modifiers
		50 = artifact.4000 # Cursed Rumors
		80 = artifact.4002 # A Dark Fame
		100 = artifact.4010 # A Killing Weapon of Fame
		100 = artifact.4020 # A Renowned Armor
		100 = artifact.4030 # The Crown of Our People
		80 = artifact.4040 # The Eye of the Expert
		100 = artifact.4050 # Anger Burst
		50 = artifact.4060 # The Blessed Sword of God
		100 = artifact.4070 # A Relic Desecrated
		100 = artifact.4080 # A Master Dueler's Weapon
		100 = artifact.4090 # A Relic and Weapon Combined


		#EP1 Courtly Events
		100 = court_yearly.1000 # Growing Debauchery
		100 = court_yearly.2001 # Competitive Cronying
		100 = court_yearly.6040 # Scrounger Life
		100 = court_yearly.1020 # Long Arm of the Law
		100 = court_yearly.5001 # Lonely Days
		100 = court_yearly.5010 # The Haunting
		100 = court_yearly.5020 # Pillow Talk
		100 = court_yearly.6030 # The Ballad of the Garlic King
		100 = court_yearly.7100 # Exotic Animal at Court
		100 = court_yearly.7200 # Loud and Proud
		100 = court_yearly.7030 # Foreign Merchants wish to establish a merchant quarter
		100 = court_yearly.7040 # Courtier on a pillar
		100 = court_yearly.4350 # Your caravans are attacked by rampaging Christian nobles!
		100 = court_yearly.4355 # one of our nobles attacked a trading caravan!
		100 = court_yearly.4800 # Spread Your Wings
		100 = court_yearly.0101 # Random Criminal Appears
		100 = court_yearly.0102 # Executioner feels lonely
		100 = court_yearly.0103 # Executioner selling items from prisoners
		100 = court_yearly.0104 # An Unhealthy Obsession
		100 = court_yearly.0106 # Dark Theatres for Dark Deeds
		100 = court_yearly.0110 # A Lecture on Lustfulness
		100 = court_yearly.8100 # Questionable Concoction
		100 = court_yearly.8120 # Novel Perspectives

		#Culture Events
		## Mendicant Mystics
		100 = culture_tradition_events.0101	# A mendicant mystic offers to teach your court's children for coin.
		100 = culture_tradition_events.0111	# A mendicant mystic seeks to teach you a lesson about HighGodName.
		100 = culture_tradition_events.0121	# A mendicant wishes to join your court.
		100 = culture_tradition_events.0131	# A mendicant is repulsed by your sins, and invokes the wrath of HighGodName against you.
		100 = culture_tradition_events.0141	# A mendicant of your culture, but not your faith, offers tutelage if you'll convert.


		#Trait Events
		100 = trait_specific.8501 # Someone mocks your lisp
		
		# FP2 - Fate of Iberia Events
		#180 = fp2_yearly.2020	# Horchata colonialism event												### EK EDIT: No Valencia in TES fp2_yearly.2020 
		#180 = fp2_yearly.2025	# Suffering from Success													### EK EDIT: No West Iberia fp2_yearly.2025
		#300 = fp2_yearly.3000 	# Neighboring Muslims are growing rice, adopt the practice yourself?		### EK EDIT: No Muslims in TES
		#150 = fp2_yearly.3001	# Choosing your epitaph														### EK EDIT: No Abrahamic religion in TES
		150 = fp2_yearly.3002 	# And They Were Roommates													#
		150 = fp2_yearly.3003 	# A Flavorful Evening 														#
		#150 = fp2_yearly.4001	# You fancy a little siesta													### EK EDIT: No naptime (unfortunately)
		#150 = fp2_yearly.4002	# A county is increasingly religiously intertwined							### EK EDIT: No Iberians
		#150 = fp2_yearly.4003	# The road to Santiago is under threat from bandits							### EK EDIT: No Santiago
		#150 = fp2_yearly.4007 	# Finding a shell on the road to Santiago									### EK EDIT: No Santiago
		#150 = fp2_yearly.4008 	# Folk stories around the fireside											### EK EDIT: No Iberian in Iberia
		#300 = fp2_yearly.4009 	# Visiting the Malato Tree													### EK EDIT: No Basque
		#150 = fp2_yearly.4010 	# Finding a Verraco															### EK EDIT: No Vettones
		#160 = fp2_yearly.8000	# Burning the Vineyards														### EK EDIT: No Islam in TES 
		#180 = fp2_yearly.8001	# Assembling the Cortes														### EK EDIT: No Cortes as no Iberia or Iberian 
		#180 = fp2_yearly.8002	# A Dietary Dilemma															### EK EDIT: No Islam or Judaism in TES 
		#180 = fp2_yearly.8003	# Flight of Fancy															### EK EDIT: No such thing in TES 
		#180 = fp2_yearly.8004	# Translation School 														### EK EDIT: No Italy in TES 
		#180 = fp2_yearly.8005	# Under the Stone Pine 														### EK EDIT: No Iberia 
		#180 = fp2_yearly.8006	# Saqaliba Settlers 														### EK EDIT: Disabled this event 
		180 = fp2_struggle.1002	# Xenophilic Advancment														#
		160 = fp2_struggle.1050	# Dreams of Destruction														#
		150 = fp2_struggle.2000	# Disorderly Market															#
		140 = fp2_struggle.2008	# Misdeeds of the Councillor												#
		300 = fp2_struggle.2013	# The Secret to Freedom														#
		130 = fp2_struggle.2015	# Letter on the Back														#

		#BP1 - Bontent Pack One Events
		100 = bp1_yearly.1000 # Best friend introduces you to a new hobby
		200 = bp1_yearly.1010 # A friend offers to mediate with your HoF who has excommunicated you
		500 = bp1_yearly.1020 # A friend visits you on your dying bed
		500 = bp1_yearly.1021 # You visit a friend on their dying bed
		500 = bp1_yearly.1030 # A rival visits you on your dying bed
		500 = bp1_yearly.1031 # You visit a rival on their dying bed
		100 = bp1_yearly.1040 # You make a new friend at the bathhouse
		100 = bp1_yearly.1050 # You make a new rival at the bathhouse
		100 = bp1_yearly.1060 # React to a superstitious friend
		150 = bp1_yearly.1061 # Make someone superstitious - hidden
		100 = bp1_yearly.1070 # Rival is superstitious - take advantage?
		100 = bp1_yearly.1080 # Married off relative writes home
		400 = bp1_yearly.1082 # Married off relative writes home to share a secret
		100 = bp1_yearly.2000 # Spoil your partner(s), learn a secret/hook followup
		400 = bp1_yearly.2010 # Two of your spouses/concubines are lovers!
		100 = bp1_yearly.2020 # A consort attempts to influence you into changing your heir
		100 = bp1_yearly.2030 # Mopey consort wants some guidance
		100 = bp1_yearly.2040 # Consort is upset with other consort
		100 = bp1_yearly.2050 # Friendly consorts wants to start a study circle
		200 = bp1_yearly.2060 # Friendly consorts want to tutor other consort's child
		100 = bp1_yearly.2070 # Childless older soulmate spouse ponders your relationship
		500 = bp1_yearly.3001 # Friend spots you some cash
		500 = bp1_yearly.3002 # You spot your friend some cash
		100 = bp1_yearly.3007 # Spouse's family member wants you to sponsor their inspiration
		100 = bp1_yearly.3100 # Your vassal/friend/family member offers you a skilled courtier
		20 = bp1_yearly.3101 # Friend offers to sell you a county you have a claim on
		100 = bp1_yearly.3201 #Fake feast invite from rival/nemesis
		100 = bp1_yearly.3300 # Remembering a pilgrimage 
		200 = bp1_yearly.3301 # Remembering a pilgrimage w/ a friend
		100 = bp1_yearly.4000 # Reflect over a family memory
		100 = bp1_yearly.4010 # Spouse demands their child gets a better guardian
		100 = bp1_yearly.4020 # Friend writes poetry about a war memory
		250 = bp1_yearly.4030 # Rival nestles their way into marrying one of your vassals, turns them disloyal
		10 = bp1_yearly.4040 # Kindly grandmother won't stop feeding you snacks; suffer the consequences of overeating, or break her heart?
		50 = bp1_yearly.5301 # Your friend is concerned about your physique
		150 = bp1_yearly.5100 # Chadsplaining to a plain courtier
		150 = bp1_yearly.5701 # Your Friend's Spouse Is Keeping Them Away From You
		100 = bp1_yearly.5702 # You ask a friend for help with skill
		200 = bp1_yearly.5703 # Your lover/rival threatens you in bed
		100 = bp1_yearly.5704 # Your rival seems strangely... attractive?
		200 = bp1_yearly.5705 # Your friend tries to talk you out of a bad relationship
		100 = bp1_yearly.5706 # You sleep with your rival's offspring
		400 = bp1_yearly.5707 # Your rival catches you sleeping with their offspring
		200 = bp1_yearly.5708 #You empathise with a friend's faith
		100 = bp1_yearly.5709 #Tempers flare between you and your rival
		100 = bp1_yearly.5713 #Your lover asks for money
		100 = bp1_yearly.5715 #You and a friend argue about pronunciation
		100 = bp1_yearly.5716 #Your zealous wife burns books
		100 = bp1_yearly.5717 #Your rival and your friend get into a drunken brawl
		100 = bp1_yearly.5719 #Your disloyal vassal is trying to embezzle
		100 = bp1_yearly.5720 #You and your rival armwrestle
		### EK EDIT: no animal cruelty pls thx
		#200 = bp1_yearly.5722 # Your nemesis launches your pet out of a catapult
		100 = bp1_yearly.5725 #You search for Khutulun
		100 = bp1_yearly.5728 #Rival steals and burns one of your artifacts
		10 = bp1_yearly.5740 #Scrambling for Answers
		80 = bp1_yearly.5800 #You make a perfume
		125 = bp1_yearly.6000 #Attacked by Rival's Child / Family Feud
		100 = bp1_yearly.7000 #Go on a picnic
		100 = bp1_yearly.7001 #Go fishing
		10 = bp1_yearly.7002 #Throw chamberpot at rival
		25 = bp1_yearly.7003 #Orgy Tapestry
		100 = bp1_yearly.7004 #Friend offers to talk about bad memory
		100 = bp1_yearly.7010 #Loyalty test
		100 = bp1_yearly.7050 #Memory of a war
		100 = bp1_yearly.7051 #Memory of Battle
		100 = bp1_yearly.7052 #Telling a story of a memory
		100 = bp1_yearly.7053 #A memory of revenge
		100 = bp1_yearly.7054 #Forgetting a memory
		100 = bp1_yearly.7055 #Recording a memory
		100 = bp1_yearly.7056 #Intimidating someone
		150 = bp1_yearly.7057 #Yearning
		100 = bp1_yearly.7058 #Friend eats all your food
		100 = bp1_yearly.8000 #Claimant moving towards rivalry
		200 = bp1_yearly.8010 #Best friend offers you a negotiated alliance
		100 = bp1_yearly.8020 #Rival of your rival offers friendship
		100 = bp1_yearly.8040 #Friend with conflicting personality falls out with you
		25 = bp1_yearly.8100 #Sycophant/favoritism chain start
		100 = bp1_yearly.9001 #Bully/guardian destroys your favourite toy
		100 = bp1_yearly.9005 #You get revenge for your destroyed toy
		100 = bp1_yearly.9006 #Becoming friends over a common sin
		10 = bp1_yearly.9007 #You find a peasant who looks exactly like you
		50 = bp1_yearly.9016 #Uppity second-in-line wants the throne
		50 = bp1_yearly.9017 #Uppity child is insecure about culture
		200 = bp1_yearly.9018 #Illegitimate child feels excluded
		100 = bp1_yearly.9019 #Spouse proposes a gay threesome
		200 = bp1_yearly.9020 #Spouse wants to do something kinky
		100 = bp1_yearly.9021 #Rival spouse is good in the bedroom
		100 = bp1_yearly.9022 #Friend holds an intervention
		200 = bp1_yearly.9023 #You realise you don't speak the same language
		100 = bp1_yearly.9024 #A friend visits you while you're sick
		150 = bp1_yearly.9025 #You realise you hate your friend
		100 = bp1_yearly.9026 #You're haunted by an old friend who convinces you to make ammends before you die
		100 = bp1_yearly.9034 # You find a terrifying bog witch
		100 = bp1_yearly.9037 # You find a bog corpse
		100 = bp1_yearly.9040 # The ghost of your dead lover wants to have sex again
		100 = bp1_yearly.9042 # Your chaplain finds a dessert that looks like HealthGodName
		100 = bp1_yearly.9043 # Your chaplain admits to being a deviant and a cannibal who eats babies
		10 = bp1_yearly.9046 # Your child poops themselves during their baptism
		100 = bp1_yearly.9047 # Lover wants you to wear their hair
		100 = bp1_yearly.9048 # Nemesis wants to end your rivalry by wrestling
		100 = bp1_yearly.9050 # You and a friend share war stories
		100 = bp1_yearly.0100 # You are caught in a storm and a rival's property is the only shelter
		20 = bp1_yearly.7100 # Excreta incident, gain Nemesis

		# Family Feud
		250 = bp1_house_feud.0001 # Consider starting feud against own rival's house
		250 = bp1_house_feud.0002 # Consider starting feud against house family member rivals
		250 = bp1_house_feud.0003 # Consider starting feud against house who killed close family
		250 = bp1_house_feud.0006 # Consider starting feud against house with competing claims
		250 = bp1_house_feud.0007 # Consider starting feud against house who imprisoned you a while
		250 = bp1_house_feud.0008 # Consider starting feud against house who imprisoned family a while
		250 = bp1_house_feud.0012 # Consider starting feud against house who cuckolded you

		# Guardianship Events
		200 = childhood.2400 # Ward approaches guardian with theological doubts
	}
}
